<?xml version="1.0" encoding="UTF-8" standalone="no"?>
<!-- Created with Inkscape (http://www.inkscape.org/) -->

<svg
   xmlns:dc="http://purl.org/dc/elements/1.1/"
   xmlns:cc="http://creativecommons.org/ns#"
   xmlns:rdf="http://www.w3.org/1999/02/22-rdf-syntax-ns#"
   xmlns:svg="http://www.w3.org/2000/svg"
   xmlns="http://www.w3.org/2000/svg"
   xmlns:sodipodi="http://sodipodi.sourceforge.net/DTD/sodipodi-0.dtd"
   xmlns:inkscape="http://www.inkscape.org/namespaces/inkscape"
   width="210mm"
   height="297mm"
   viewBox="0 0 210 297"
   version="1.1"
   id="svg8"
   inkscape:version="0.92.5 (2060ec1f9f, 2020-04-08)"
   sodipodi:docname="sceno.svg">
  <defs
     id="defs2" />
  <sodipodi:namedview
     id="base"
     pagecolor="#ffffff"
     bordercolor="#666666"
     borderopacity="1.0"
     inkscape:pageopacity="0.0"
     inkscape:pageshadow="2"
     inkscape:zoom="1.4"
     inkscape:cx="-990.15243"
     inkscape:cy="1338.6298"
     inkscape:document-units="mm"
     inkscape:current-layer="g4591"
     showgrid="false"
     inkscape:window-width="1872"
     inkscape:window-height="1016"
     inkscape:window-x="48"
     inkscape:window-y="27"
     inkscape:window-maximized="1" />
  <metadata
     id="metadata5">
    <rdf:RDF>
      <cc:Work
         rdf:about="">
        <dc:format>image/svg+xml</dc:format>
        <dc:type
           rdf:resource="http://purl.org/dc/dcmitype/StillImage" />
        <dc:title></dc:title>
      </cc:Work>
    </rdf:RDF>
  </metadata>
  <g
     inkscape:label="Calque 1"
     inkscape:groupmode="layer"
     id="layer1">
    <g
       transform="matrix(-1,0,0,1,-451.888,-23.412271)"
       id="g4603">
      <rect
         style="opacity:1;fill:#00ffff;fill-opacity:1;stroke:none;stroke-width:2.81577945;stroke-miterlimit:4;stroke-dasharray:none;stroke-opacity:1"
         id="rect4593"
         width="4"
         height="170"
         x="-126.76601"
         y="-354.7641"
         transform="rotate(-60)" />
      <g
         id="g4601"
         transform="rotate(30,-480.94491,67.112095)">
        <rect
           y="-114.71513"
           x="-452.75455"
           height="6"
           width="33"
           id="rect4595"
           style="opacity:1;fill:#800080;fill-opacity:1;stroke:none;stroke-width:3.84795737;stroke-miterlimit:4;stroke-dasharray:none;stroke-opacity:1" />
        <circle
           style="opacity:1;fill:#9c009c;fill-opacity:1;stroke:#28fe28;stroke-width:8.632411;stroke-miterlimit:4;stroke-dasharray:none;stroke-opacity:1"
           id="circle4597"
           cx="-436.25455"
           cy="-119.71513"
           r="8.683794" />
        <circle
           style="opacity:1;fill:#00ffff;fill-opacity:1;stroke:none;stroke-width:0.53757775;stroke-miterlimit:4;stroke-dasharray:none;stroke-opacity:1"
           id="circle4599"
           cx="-436.25455"
           cy="-119.71513"
           r="5" />
      </g>
    </g>
    <g
       id="g4591"
       transform="translate(15.768902,-18.120604)">
      <rect
         transform="rotate(-60)"
         y="-357.40994"
         x="-122.18329"
         height="170"
         width="4"
         id="rect4563"
         style="opacity:1;fill:#00ffff;fill-opacity:1;stroke:none;stroke-width:2.81577945;stroke-miterlimit:4;stroke-dasharray:none;stroke-opacity:1" />
      <g
         transform="rotate(30,-471.07053,64.466262)"
         id="g4584">
        <rect
           style="opacity:1;fill:#800080;fill-opacity:1;stroke:none;stroke-width:3.84795737;stroke-miterlimit:4;stroke-dasharray:none;stroke-opacity:1"
           id="rect4575"
           width="33"
           height="6"
           x="-452.75455"
           y="-114.71513" />
        <circle
           r="8.683794"
           cy="-119.71513"
           cx="-436.25455"
           id="circle4577"
           style="opacity:1;fill:#9c009c;fill-opacity:1;stroke:#28fe28;stroke-width:8.632411;stroke-miterlimit:4;stroke-dasharray:none;stroke-opacity:1" />
        <circle
           r="5"
           cy="-119.71513"
           cx="-436.25455"
           id="circle4579"
           style="opacity:1;fill:#00ffff;fill-opacity:1;stroke:none;stroke-width:0.53757775;stroke-miterlimit:4;stroke-dasharray:none;stroke-opacity:1" />
      </g>
      <rect
         style="opacity:1;fill:#ffcc00;fill-opacity:1;stroke:none;stroke-width:9.42269993;stroke-miterlimit:4;stroke-dasharray:none;stroke-opacity:1"
         id="rect4606"
         width="4"
         height="22"
         x="-262.71161"
         y="-10.347357" />
      <rect
         y="-10.347357"
         x="-208.71162"
         height="22"
         width="4"
         id="rect4608"
         style="opacity:1;fill:#ffcc00;fill-opacity:1;stroke:none;stroke-width:9.42269993;stroke-miterlimit:4;stroke-dasharray:none;stroke-opacity:1" />
      <rect
         style="opacity:1;fill:#ffcc00;fill-opacity:1;stroke:none;stroke-width:9.06067944;stroke-miterlimit:4;stroke-dasharray:none;stroke-opacity:1"
         id="rect4610"
         width="8"
         height="19.465773"
         x="-372.57843"
         y="-62.855583" />
    </g>
    <rect
       style="opacity:1;fill:#ff00ff;fill-opacity:1;stroke:none;stroke-width:4.44247866;stroke-miterlimit:4;stroke-dasharray:none;stroke-opacity:1"
       id="rect815"
       width="120"
       height="8"
       x="-277.94272"
       y="40.421921" />
    <rect
       style="opacity:1;fill:#0000ff;fill-opacity:1;stroke:none;stroke-width:4.14500475;stroke-miterlimit:4;stroke-dasharray:none;stroke-opacity:1"
       id="rect817"
       width="12"
       height="1000"
       x="-174.36377"
       y="-15.702608"
       transform="rotate(-20)" />
    <rect
       y="-289.72482"
       x="999.30176"
       height="1000"
       width="12"
       id="rect819"
       style="opacity:1;fill:#0000ff;fill-opacity:1;stroke:none;stroke-width:4.14500475;stroke-miterlimit:4;stroke-dasharray:none;stroke-opacity:1"
       transform="rotate(-90)" />
    <rect
       style="opacity:1;fill:#999999;fill-opacity:1;stroke:none;stroke-width:15.77510548;stroke-miterlimit:4;stroke-dasharray:none;stroke-opacity:1"
       id="rect4526"
       width="217.263"
       height="800"
       x="-1201.8359"
       y="-619.96289"
       transform="rotate(-90)" />
    <rect
       transform="matrix(-0.93969262,-0.34202014,-0.34202014,0.93969262,0,0)"
       y="131.80615"
       x="230.91315"
       height="1000"
       width="12"
       id="rect4528"
       style="opacity:1;fill:#0000ff;fill-opacity:1;stroke:none;stroke-width:4.14500475;stroke-miterlimit:4;stroke-dasharray:none;stroke-opacity:1" />
    <circle
       style="opacity:1;fill:#999999;fill-opacity:1;stroke:none;stroke-width:5.78588867;stroke-miterlimit:4;stroke-dasharray:none;stroke-opacity:1"
       id="path4549"
       cx="-217.94272"
       cy="-210.69933"
       r="120" />
    <rect
       y="209.94272"
       x="-9.4679604"
       height="16"
       width="50"
       id="rect4551"
       style="opacity:1;fill:#00ffff;fill-opacity:1;stroke:none;stroke-width:4.05540943;stroke-miterlimit:4;stroke-dasharray:none;stroke-opacity:1"
       transform="rotate(90)" />
    <rect
       transform="scale(-1)"
       style="opacity:1;fill:#000080;fill-opacity:1;stroke:none;stroke-width:4.05540943;stroke-miterlimit:4;stroke-dasharray:none;stroke-opacity:1"
       id="rect4553"
       width="50"
       height="16"
       x="192.94272"
       y="9.4679604" />
    <circle
       style="opacity:1;fill:#ff2a2a;fill-opacity:1;stroke:none;stroke-width:0.53757775;stroke-miterlimit:4;stroke-dasharray:none;stroke-opacity:1"
       id="path4555"
       cx="-332.94272"
       cy="-95.69928"
       r="5" />
    <circle
       r="5"
       cy="-95.69928"
       cx="-102.94272"
       id="circle4557"
       style="opacity:1;fill:#ffcc00;fill-opacity:1;stroke:none;stroke-width:0.53757775;stroke-miterlimit:4;stroke-dasharray:none;stroke-opacity:1" />
    <circle
       r="5"
       cy="-325.69922"
       cx="-332.94272"
       id="circle4559"
       style="opacity:1;fill:#00ffff;fill-opacity:1;stroke:none;stroke-width:0.53757775;stroke-miterlimit:4;stroke-dasharray:none;stroke-opacity:1" />
    <circle
       style="opacity:1;fill:#00ffff;fill-opacity:1;stroke:none;stroke-width:0.53757775;stroke-miterlimit:4;stroke-dasharray:none;stroke-opacity:1"
       id="circle4561"
       cx="-102.94272"
       cy="-325.69922"
       r="5" />
    <text
       xml:space="preserve"
       style="font-style:normal;font-weight:normal;font-size:10.58333302px;line-height:1.25;font-family:sans-serif;letter-spacing:0px;word-spacing:0px;fill:#000000;fill-opacity:1;stroke:none;stroke-width:0.26458332"
       x="-257.2767"
       y="81.608406"
       id="text4569"><tspan
         sodipodi:role="line"
         id="tspan4567"
         x="-257.2767"
         y="81.608406"
         style="stroke-width:0.26458332">20°</tspan></text>
    <text
       id="text4573"
       y="-6.5905385"
       x="-300.03983"
       style="font-style:normal;font-weight:normal;font-size:10.58333302px;line-height:1.25;font-family:sans-serif;letter-spacing:0px;word-spacing:0px;fill:#000000;fill-opacity:1;stroke:none;stroke-width:0.26458332"
       xml:space="preserve"><tspan
         style="stroke-width:0.26458332"
         y="-6.5905385"
         x="-300.03983"
         id="tspan4571"
         sodipodi:role="line">30°</tspan></text>
  </g>
</svg>
